Determining if the pthread_create exist failed with the following output:
Change Dir: /data/s1531565/torch/extra/threads/build/CMakeFiles/CMakeTmp

Run Build Command:"/usr/bin/gmake" "cmTC_e5044/fast"
/usr/bin/gmake -f CMakeFiles/cmTC_e5044.dir/build.make CMakeFiles/cmTC_e5044.dir/build
gmake[1]: Entering directory `/data/s1531565/torch/extra/threads/build/CMakeFiles/CMakeTmp'
Building C object CMakeFiles/cmTC_e5044.dir/CheckSymbolExists.c.o
/software/software/GCCcore/4.9.3/bin/cc   -I/data/s1531565/torch/install/include   -o CMakeFiles/cmTC_e5044.dir/CheckSymbolExists.c.o   -c /data/s1531565/torch/extra/threads/build/CMakeFiles/CMakeTmp/CheckSymbolExists.c
Linking C executable cmTC_e5044
/apps/sandybridge/software/CMake/3.6.1-foss-2016a/bin/cmake -E cmake_link_script CMakeFiles/cmTC_e5044.dir/link.txt --verbose=1
/software/software/GCCcore/4.9.3/bin/cc       CMakeFiles/cmTC_e5044.dir/CheckSymbolExists.c.o  -o cmTC_e5044 -rdynamic 
CMakeFiles/cmTC_e5044.dir/CheckSymbolExists.c.o:CheckSymbolExists.c:function main: error: undefined reference to 'pthread_create'
collect2: error: ld returned 1 exit status
gmake[1]: *** [cmTC_e5044] Error 1
gmake[1]: Leaving directory `/data/s1531565/torch/extra/threads/build/CMakeFiles/CMakeTmp'
gmake: *** [cmTC_e5044/fast] Error 2

File /data/s1531565/torch/extra/threads/build/CMakeFiles/CMakeTmp/CheckSymbolExists.c:
/* */
#include <pthread.h>

int main(int argc, char** argv)
{
  (void)argv;
#ifndef pthread_create
  return ((int*)(&pthread_create))[argc];
#else
  (void)argc;
  return 0;
#endif
}

Determining if the function pthread_create exists in the pthreads failed with the following output:
Change Dir: /data/s1531565/torch/extra/threads/build/CMakeFiles/CMakeTmp

Run Build Command:"/usr/bin/gmake" "cmTC_587fe/fast"
/usr/bin/gmake -f CMakeFiles/cmTC_587fe.dir/build.make CMakeFiles/cmTC_587fe.dir/build
gmake[1]: Entering directory `/data/s1531565/torch/extra/threads/build/CMakeFiles/CMakeTmp'
Building C object CMakeFiles/cmTC_587fe.dir/CheckFunctionExists.c.o
/software/software/GCCcore/4.9.3/bin/cc    -DCHECK_FUNCTION_EXISTS=pthread_create   -o CMakeFiles/cmTC_587fe.dir/CheckFunctionExists.c.o   -c /apps/sandybridge/software/CMake/3.6.1-foss-2016a/share/cmake-3.6/Modules/CheckFunctionExists.c
Linking C executable cmTC_587fe
/apps/sandybridge/software/CMake/3.6.1-foss-2016a/bin/cmake -E cmake_link_script CMakeFiles/cmTC_587fe.dir/link.txt --verbose=1
/software/software/GCCcore/4.9.3/bin/cc   -DCHECK_FUNCTION_EXISTS=pthread_create    CMakeFiles/cmTC_587fe.dir/CheckFunctionExists.c.o  -o cmTC_587fe -rdynamic -lpthreads 
/software/software/binutils/2.25-GCCcore-4.9.3/bin/ld.gold: error: cannot find -lpthreads
CMakeFiles/cmTC_587fe.dir/CheckFunctionExists.c.o:CheckFunctionExists.c:function main: error: undefined reference to 'pthread_create'
collect2: error: ld returned 1 exit status
gmake[1]: *** [cmTC_587fe] Error 1
gmake[1]: Leaving directory `/data/s1531565/torch/extra/threads/build/CMakeFiles/CMakeTmp'
gmake: *** [cmTC_587fe/fast] Error 2


